1 12 North 6.2
2 12 NorthEast 2
3 12 NorthEast 1.8
4 12 East 2.7
5 12 North 9.4
6 12 North 10.2
7 12 North 11
8 12 South 3
9 12 South 3.3
10 12 SouthWest 1.1
11 12 SouthWest 1.4
12 12 SouthWest 2
13 12 West 2.3
14 12 SouthWest 2.2
15 12 NorthWest 8.8
16 12 West 3
17 12 West 2.5
18 12 South 1.3
19 12 SouthWest 3
20 12 West 3.3
21 12 North 5.1
